Juan Isaula - Machine Learning en Tidyverse
…
Tal como lo mencionamos previamente, gap_anidado contiene las características de cada país anidadas como un tibble. Con esto hecho, procederemos a construir modelos lineales para cada país, para ello usaremos la función map() del paquete purrr

gap_models <- gap_anidado %>% 
  mutate(model = map(data, ~lm(life_expectancy~year,data = .x)))

gap_models

# A tibble: 185 × 3
# Groups:   country [185]
   country             data              model 
   <fct>               <list>            <list>
 1 Albania             <tibble [57 × 8]> <lm>  
 2 Algeria             <tibble [57 × 8]> <lm>  
 3 Angola              <tibble [57 × 8]> <lm>  
 4 Antigua and Barbuda <tibble [57 × 8]> <lm>  
 5 Argentina           <tibble [57 × 8]> <lm>  
 6 Armenia             <tibble [57 × 8]> <lm>  
 7 Aruba               <tibble [57 × 8]> <lm>  
 8 Australia           <tibble [57 × 8]> <lm>  
 9 Austria             <tibble [57 × 8]> <lm>  
10 Azerbaijan          <tibble [57 × 8]> <lm>  
# … with 175 more rows
…
# A tibble: 2 × 5
  term        estimate std.error statistic  p.value
  <chr>          <dbl>     <dbl>     <dbl>    <dbl>
1 (Intercept) -397.     12.4         -32.1 2.48e-37
2 year           0.236   0.00622      38.0 3.72e-41

Coeficientes de Modelos Múltiples

Puede generar estos coeficientes mapeando la funcíon tidy() para cada uno de nuestros modelos y luego simplificando el nuevo marco de datos usando la función unnest(). Esto da como resultado un tibble que contiene la estimación para cada coeficiente de cada país.

gap_models %>% 
  mutate(coef = map(model, ~tidy(.x))) %>% 
  unnest(coef)

# A tibble: 370 × 8
# Groups:   country [185]
   country             data     model  term    estimate std.e…¹ stati…²  p.value
   <fct>               <list>   <list> <chr>      <dbl>   <dbl>   <dbl>    <dbl>
 1 Albania             <tibble> <lm>   (Inter… -3.97e+2 1.24e+1   -32.1 2.48e-37
 2 Albania             <tibble> <lm>   year     2.36e-1 6.22e-3    38.0 3.72e-41
 3 Algeria             <tibble> <lm>   (Inter… -1.10e+3 4.05e+1   -27.2 1.51e-33
 4 Algeria             <tibble> <lm>   year     5.86e-1 2.04e-2    28.8 7.84e-35
 5 Angola              <tibble> <lm>   (Inter… -7.48e+2 1.12e+1   -67.0 2.03e-54
 6 Angola              <tibble> <lm>   year     4.01e-1 5.62e-3    71.4 6.69e-56
 7 Antigua and Barbuda <tibble> <lm>   (Inter… -3.79e+2 1.56e+1   -24.2 5.19e-31
 8 Antigua and Barbuda <tibble> <lm>   year     2.26e-1 7.87e-3    28.8 7.64e-35
 9 Argentina           <tibble> <lm>   (Inter… -3.56e+2 7.67e+0   -46.4 8.83e-46
10 Argentina           <tibble> <lm>   year     2.15e-1 3.86e-3    55.7 4.58e-50
# … with 360 more rows, and abbreviated variable names ¹​std.error, ²​statistic
…
Muy bien, con el conocimiento previo, hechemos un vistazo a nuestros modelos. Para ello usamos map() y glance() para crear un marco de datos de estadísticas de resumen para cada modelo almacenado como la columna coef. Luego, puede simplificar estos marcos de datos usando la función unnest(). Esto nos dará como resultado un tibble que contendrá las estadisticas del modelo para cada modelo de país.

model_perf <- gap_models %>% 
  mutate(coef = map(model,~glance(.x))) %>% 
  unnest(coef)

model_perf

# A tibble: 185 × 15
# Groups:   country [185]
   country    data     model r.squ…¹ adj.r…² sigma stati…³  p.value    df logLik
   <fct>      <list>   <lis>   <dbl>   <dbl> <dbl>   <dbl>    <dbl> <dbl>  <dbl>
 1 Albania    <tibble> <lm>    0.963   0.963 0.772  1443.  3.72e-41     1  -65.1
 2 Algeria    <tibble> <lm>    0.938   0.937 2.53    828.  7.84e-35     1 -133. 
 3 Angola     <tibble> <lm>    0.989   0.989 0.698  5091.  6.69e-56     1  -59.3
 4 Antigua a… <tibble> <lm>    0.938   0.937 0.977   828.  7.64e-35     1  -78.6
 5 Argentina  <tibble> <lm>    0.983   0.982 0.479  3103.  4.58e-50     1  -37.9
 6 Armenia    <tibble> <lm>    0.288   0.275 1.57     22.2 1.70e- 5     1 -106. 
 7 Aruba      <tibble> <lm>    0.882   0.880 0.964   412.  3.28e-27     1  -77.8
 8 Australia  <tibble> <lm>    0.983   0.983 0.540  3240.  1.42e-50     1  -44.7
 9 Austria    <tibble> <lm>    0.989   0.989 0.430  4949.  1.45e-55     1  -31.7
10 Azerbaijan <tibble> <lm>    0.679   0.673 1.54    116.  3.48e-15     1 -105. 
# … with 175 more rows, 5 more variables: AIC <dbl>, BIC <dbl>, deviance <dbl>,
#   df.residual <int>, nobs <int>, and abbreviated variable names ¹​r.squared,
#   ²​adj.r.squared, ³​statistic
…
Creación de Marco de Datos Aumentados

Para hacer esto, primero debe crear un marco de datos que contenga tanto los valores predichos como los originales. Esto requiere primero usar map() y augment() para trabajar en la columna de la lista que contiene los modelos para crear marcos de datos anidados que contengan tanto los valores originales como los predichos. Luego, puede usar unnest() en esta nueva columna para simplificar estos marcos de datos y permitir una mayor exploración.

augment_models <- gap_models %>% 
  mutate(augmented = map(model,~augment(.x))) %>% 
  unnest(augmented)

augment_models

# A tibble: 10,545 × 11
# Groups:   country [185]
   country data     model  life_exp…¹  year .fitted .resid   .hat .sigma .cooksd
   <fct>   <list>   <list>      <dbl> <int>   <dbl>  <dbl>  <dbl>  <dbl>   <dbl>
 1 Albania <tibble> <lm>         62.9  1960    65.7 -2.80  0.0684  0.672 0.517  
 2 Albania <tibble> <lm>         63.9  1961    65.9 -1.99  0.0648  0.728 0.245  
 3 Albania <tibble> <lm>         64.8  1962    66.1 -1.30  0.0614  0.758 0.0989 
 4 Albania <tibble> <lm>         65.6  1963    66.4 -0.778 0.0581  0.772 0.0332 
 5 Albania <tibble> <lm>         66.2  1964    66.6 -0.434 0.0549  0.777 0.00970
 6 Albania <tibble> <lm>         66.6  1965    66.9 -0.260 0.0518  0.779 0.00327
 7 Albania <tibble> <lm>         66.9  1966    67.1 -0.206 0.0489  0.779 0.00193
 8 Albania <tibble> <lm>         67.1  1967    67.3 -0.213 0.0461  0.779 0.00192
 9 Albania <tibble> <lm>         67.3  1968    67.6 -0.239 0.0435  0.779 0.00227
10 Albania <tibble> <lm>         67.6  1969    67.8 -0.245 0.0409  0.779 0.00224
# … with 10,535 more rows, 1 more variable: .std.resid <dbl>, and abbreviated
#   variable name ¹​life_expectancy
…
